
docker run -d \
  --name=pwndrop \
  -e PUID=1000 \
  -e PGID=1000 \
  -e TZ=Etc/UTC \
  -e SECRET_PATH=/home/user/docker_soft/pwndrop  \
  -p 8083:8080 \
  -v /home/user/docker_soft/pwndrop/appdata:/config \
  --restart unless-stopped \
  lscr.io/linuxserver/pwndrop:latest

==========================================
  -v /home/user/docker_soft/pwndrop/appdata:/config 
  -e SECRET_PATH=/home/user/docker_soft/pwndrop  \