Копирование
scp.exe "E:\ISO\CentOS-8.1.1911-x86_64.iso" root@192.168.1.202:/home
Можно рекурсивно скопировать все содержимое каталога:

scp -r E:\ISO\ root@192.168.1.202:/home
И наоборот, вы можете скопировать файл с удаленного сервера на ваш компьютер:

scp.exe root@192.168.1.202:/home/CentOS-8.1.1911-x86_64.iso e:\tmp